^C:\USERS\360\DOWNLOADS\OVR_SDK_WIN_1.13.0\OCULUSSDK\LIBOVRKERNEL\SRC\UTIL\SHADERS\BLT_PS.HLSL
C:\USERS\360\DOWNLOADS\OVR_SDK_WIN_1.13.0\OCULUSSDK\LIBOVRKERNEL\SRC\UTIL\SHADERS\BLT_PS.H
^C:\USERS\360\DOWNLOADS\OVR_SDK_WIN_1.13.0\OCULUSSDK\LIBOVRKERNEL\SRC\UTIL\SHADERS\BLT_VS.HLSL
C:\USERS\360\DOWNLOADS\OVR_SDK_WIN_1.13.0\OCULUSSDK\LIBOVRKERNEL\SRC\UTIL\SHADERS\BLT_VS.H
