^C:\USERS\360\DOWNLOADS\OVR_SDK_WIN_1.13.0\OCULUSSDK\LIBOVR\OBJ\LIBOVR\WINDOWS\X64\DEBUG\VS2015\OVR_CAPISHIM.OBJ|C:\USERS\360\DOWNLOADS\OVR_SDK_WIN_1.13.0\OCULUSSDK\LIBOVR\OBJ\LIBOVR\WINDOWS\X64\DEBUG\VS2015\OVR_CAPI_UTIL.OBJ|C:\USERS\360\DOWNLOADS\OVR_SDK_WIN_1.13.0\OCULUSSDK\LIBOVR\OBJ\LIBOVR\WINDOWS\X64\DEBUG\VS2015\OVR_STEREOPROJECTION.OBJ
C:\WINDOWS\GLOBALIZATION\SORTING\SORTDEFAULT.NLS
C:\USERS\360\DOWNLOADS\OVR_SDK_WIN_1.13.0\OCULUSSDK\LIBOVR\OBJ\LIBOVR\WINDOWS\X64\DEBUG\VS2015\OVR_CAPISHIM.OBJ
C:\WINDOWS\SYSTEM32\TZRES.DLL
C:\USERS\360\DOWNLOADS\OVR_SDK_WIN_1.13.0\OCULUSSDK\LIBOVR\OBJ\LIBOVR\WINDOWS\X64\DEBUG\VS2015\OVR_CAPI_UTIL.OBJ
C:\USERS\360\DOWNLOADS\OVR_SDK_WIN_1.13.0\OCULUSSDK\LIBOVR\OBJ\LIBOVR\WINDOWS\X64\DEBUG\VS2015\OVR_STEREOPROJECTION.OBJ
