^C:\USERS\360\DOWNLOADS\OVR_SDK_WIN_1.13.0\OCULUSSDK\LOGGING\SRC\INTERNAL\LOGGING_TOOLS.CPP
/c /IC:\USERS\360\DOWNLOADS\OVR_SDK_WIN_1.13.0\OCULUSSDK\LIBOVRKERNEL/SRC/ /IC:\USERS\360\DOWNLOADS\OVR_SDK_WIN_1.13.0\OCULUSSDK\LOGGING/INCLUDE/ /Z7 /nologo /W4 /WX /Ox /Ob2 /Oi /Oy- /D _WIN64 /D NDEBUG /D _LIB /D _UNICODE /D UNICODE /GF- /Gm- /EHs /MD /GS /Gy /fp:precise /Zc:wchar_t /Zc:forScope /Zc:inline /GR- /Fo"C:\USERS\360\DOWNLOADS\OVR_SDK_WIN_1.13.0\OCULUSSDK\LIBOVRKERNEL\PROJECTS\WINDOWS\VS2015\../../../OBJ/LIBOVRKERNEL/WINDOWS/X64/RELEASE (DLL CRT)/VS2015/" /Fd"C:\USERS\360\DOWNLOADS\OVR_SDK_WIN_1.13.0\OCULUSSDK\LIBOVRKERNEL\PROJECTS\WINDOWS\VS2015\../../../OBJ/LIBOVRKERNEL/WINDOWS/X64/RELEASE (DLL CRT)/VS2015/LIBOVRKERNEL.PDB" /Gd /TP /Zl /d2Zi+ /we4263 /we4264 /we4265 /we4266 /we4062  C:\USERS\360\DOWNLOADS\OVR_SDK_WIN_1.13.0\OCULUSSDK\LOGGING\SRC\INTERNAL\LOGGING_TOOLS.CPP
^C:\USERS\360\DOWNLOADS\OVR_SDK_WIN_1.13.0\OCULUSSDK\LOGGING\SRC\LOGGING_LIBRARY.CPP
/c /IC:\USERS\360\DOWNLOADS\OVR_SDK_WIN_1.13.0\OCULUSSDK\LIBOVRKERNEL/SRC/ /IC:\USERS\360\DOWNLOADS\OVR_SDK_WIN_1.13.0\OCULUSSDK\LOGGING/INCLUDE/ /Z7 /nologo /W4 /WX /Ox /Ob2 /Oi /Oy- /D _WIN64 /D NDEBUG /D _LIB /D _UNICODE /D UNICODE /GF- /Gm- /EHs /MD /GS /Gy /fp:precise /Zc:wchar_t /Zc:forScope /Zc:inline /GR- /Fo"C:\USERS\360\DOWNLOADS\OVR_SDK_WIN_1.13.0\OCULUSSDK\LIBOVRKERNEL\PROJECTS\WINDOWS\VS2015\../../../OBJ/LIBOVRKERNEL/WINDOWS/X64/RELEASE (DLL CRT)/VS2015/" /Fd"C:\USERS\360\DOWNLOADS\OVR_SDK_WIN_1.13.0\OCULUSSDK\LIBOVRKERNEL\PROJECTS\WINDOWS\VS2015\../../../OBJ/LIBOVRKERNEL/WINDOWS/X64/RELEASE (DLL CRT)/VS2015/LIBOVRKERNEL.PDB" /Gd /TP /Zl /d2Zi+ /we4263 /we4264 /we4265 /we4266 /we4062  C:\USERS\360\DOWNLOADS\OVR_SDK_WIN_1.13.0\OCULUSSDK\LOGGING\SRC\LOGGING_LIBRARY.CPP
^C:\USERS\360\DOWNLOADS\OVR_SDK_WIN_1.13.0\OCULUSSDK\LOGGING\SRC\LOGGING_OUTPUTPLUGINS.CPP
/c /IC:\USERS\360\DOWNLOADS\OVR_SDK_WIN_1.13.0\OCULUSSDK\LIBOVRKERNEL/SRC/ /IC:\USERS\360\DOWNLOADS\OVR_SDK_WIN_1.13.0\OCULUSSDK\LOGGING/INCLUDE/ /Z7 /nologo /W4 /WX /Ox /Ob2 /Oi /Oy- /D _WIN64 /D NDEBUG /D _LIB /D _UNICODE /D UNICODE /GF- /Gm- /EHs /MD /GS /Gy /fp:precise /Zc:wchar_t /Zc:forScope /Zc:inline /GR- /Fo"C:\USERS\360\DOWNLOADS\OVR_SDK_WIN_1.13.0\OCULUSSDK\LIBOVRKERNEL\PROJECTS\WINDOWS\VS2015\../../../OBJ/LIBOVRKERNEL/WINDOWS/X64/RELEASE (DLL CRT)/VS2015/" /Fd"C:\USERS\360\DOWNLOADS\OVR_SDK_WIN_1.13.0\OCULUSSDK\LIBOVRKERNEL\PROJECTS\WINDOWS\VS2015\../../../OBJ/LIBOVRKERNEL/WINDOWS/X64/RELEASE (DLL CRT)/VS2015/LIBOVRKERNEL.PDB" /Gd /TP /Zl /d2Zi+ /we4263 /we4264 /we4265 /we4266 /we4062  C:\USERS\360\DOWNLOADS\OVR_SDK_WIN_1.13.0\OCULUSSDK\LOGGING\SRC\LOGGING_OUTPUTPLUGINS.CPP
^C:\USERS\360\DOWNLOADS\OVR_SDK_WIN_1.13.0\OCULUSSDK\LIBOVRKERNEL\SRC\GL\CAPI_GLE.CPP
/c /IC:\USERS\360\DOWNLOADS\OVR_SDK_WIN_1.13.0\OCULUSSDK\LIBOVRKERNEL/SRC/ /IC:\USERS\360\DOWNLOADS\OVR_SDK_WIN_1.13.0\OCULUSSDK\LOGGING/INCLUDE/ /Z7 /nologo /W4 /WX /Ox /Ob2 /Oi /Oy- /D _WIN64 /D NDEBUG /D _LIB /D _UNICODE /D UNICODE /GF- /Gm- /EHs /MD /GS /Gy /fp:precise /Zc:wchar_t /Zc:forScope /Zc:inline /GR- /Fo"C:\USERS\360\DOWNLOADS\OVR_SDK_WIN_1.13.0\OCULUSSDK\LIBOVRKERNEL\PROJECTS\WINDOWS\VS2015\../../../OBJ/LIBOVRKERNEL/WINDOWS/X64/RELEASE (DLL CRT)/VS2015/" /Fd"C:\USERS\360\DOWNLOADS\OVR_SDK_WIN_1.13.0\OCULUSSDK\LIBOVRKERNEL\PROJECTS\WINDOWS\VS2015\../../../OBJ/LIBOVRKERNEL/WINDOWS/X64/RELEASE (DLL CRT)/VS2015/LIBOVRKERNEL.PDB" /Gd /TP /Zl /d2Zi+ /we4263 /we4264 /we4265 /we4266 /we4062  C:\USERS\360\DOWNLOADS\OVR_SDK_WIN_1.13.0\OCULUSSDK\LIBOVRKERNEL\SRC\GL\CAPI_GLE.CPP
^C:\USERS\360\DOWNLOADS\OVR_SDK_WIN_1.13.0\OCULUSSDK\LIBOVRKERNEL\SRC\KERNEL\OVR_ALG.CPP
/c /IC:\USERS\360\DOWNLOADS\OVR_SDK_WIN_1.13.0\OCULUSSDK\LIBOVRKERNEL/SRC/ /IC:\USERS\360\DOWNLOADS\OVR_SDK_WIN_1.13.0\OCULUSSDK\LOGGING/INCLUDE/ /Z7 /nologo /W4 /WX /Ox /Ob2 /Oi /Oy- /D _WIN64 /D NDEBUG /D _LIB /D _UNICODE /D UNICODE /GF- /Gm- /EHs /MD /GS /Gy /fp:precise /Zc:wchar_t /Zc:forScope /Zc:inline /GR- /Fo"C:\USERS\360\DOWNLOADS\OVR_SDK_WIN_1.13.0\OCULUSSDK\LIBOVRKERNEL\PROJECTS\WINDOWS\VS2015\../../../OBJ/LIBOVRKERNEL/WINDOWS/X64/RELEASE (DLL CRT)/VS2015/" /Fd"C:\USERS\360\DOWNLOADS\OVR_SDK_WIN_1.13.0\OCULUSSDK\LIBOVRKERNEL\PROJECTS\WINDOWS\VS2015\../../../OBJ/LIBOVRKERNEL/WINDOWS/X64/RELEASE (DLL CRT)/VS2015/LIBOVRKERNEL.PDB" /Gd /TP /Zl /d2Zi+ /we4263 /we4264 /we4265 /we4266 /we4062  C:\USERS\360\DOWNLOADS\OVR_SDK_WIN_1.13.0\OCULUSSDK\LIBOVRKERNEL\SRC\KERNEL\OVR_ALG.CPP
^C:\USERS\360\DOWNLOADS\OVR_SDK_WIN_1.13.0\OCULUSSDK\LIBOVRKERNEL\SRC\KERNEL\OVR_ALLOCATOR.CPP
/c /IC:\USERS\360\DOWNLOADS\OVR_SDK_WIN_1.13.0\OCULUSSDK\LIBOVRKERNEL/SRC/ /IC:\USERS\360\DOWNLOADS\OVR_SDK_WIN_1.13.0\OCULUSSDK\LOGGING/INCLUDE/ /Z7 /nologo /W4 /WX /Ox /Ob2 /Oi /Oy- /D _WIN64 /D NDEBUG /D _LIB /D _UNICODE /D UNICODE /GF- /Gm- /EHs /MD /GS /Gy /fp:precise /Zc:wchar_t /Zc:forScope /Zc:inline /GR- /Fo"C:\USERS\360\DOWNLOADS\OVR_SDK_WIN_1.13.0\OCULUSSDK\LIBOVRKERNEL\PROJECTS\WINDOWS\VS2015\../../../OBJ/LIBOVRKERNEL/WINDOWS/X64/RELEASE (DLL CRT)/VS2015/" /Fd"C:\USERS\360\DOWNLOADS\OVR_SDK_WIN_1.13.0\OCULUSSDK\LIBOVRKERNEL\PROJECTS\WINDOWS\VS2015\../../../OBJ/LIBOVRKERNEL/WINDOWS/X64/RELEASE (DLL CRT)/VS2015/LIBOVRKERNEL.PDB" /Gd /TP /Zl /d2Zi+ /we4263 /we4264 /we4265 /we4266 /we4062  C:\USERS\360\DOWNLOADS\OVR_SDK_WIN_1.13.0\OCULUSSDK\LIBOVRKERNEL\SRC\KERNEL\OVR_ALLOCATOR.CPP
^C:\USERS\360\DOWNLOADS\OVR_SDK_WIN_1.13.0\OCULUSSDK\LIBOVRKERNEL\SRC\KERNEL\OVR_ATOMIC.CPP
/c /IC:\USERS\360\DOWNLOADS\OVR_SDK_WIN_1.13.0\OCULUSSDK\LIBOVRKERNEL/SRC/ /IC:\USERS\360\DOWNLOADS\OVR_SDK_WIN_1.13.0\OCULUSSDK\LOGGING/INCLUDE/ /Z7 /nologo /W4 /WX /Ox /Ob2 /Oi /Oy- /D _WIN64 /D NDEBUG /D _LIB /D _UNICODE /D UNICODE /GF- /Gm- /EHs /MD /GS /Gy /fp:precise /Zc:wchar_t /Zc:forScope /Zc:inline /GR- /Fo"C:\USERS\360\DOWNLOADS\OVR_SDK_WIN_1.13.0\OCULUSSDK\LIBOVRKERNEL\PROJECTS\WINDOWS\VS2015\../../../OBJ/LIBOVRKERNEL/WINDOWS/X64/RELEASE (DLL CRT)/VS2015/" /Fd"C:\USERS\360\DOWNLOADS\OVR_SDK_WIN_1.13.0\OCULUSSDK\LIBOVRKERNEL\PROJECTS\WINDOWS\VS2015\../../../OBJ/LIBOVRKERNEL/WINDOWS/X64/RELEASE (DLL CRT)/VS2015/LIBOVRKERNEL.PDB" /Gd /TP /Zl /d2Zi+ /we4263 /we4264 /we4265 /we4266 /we4062  C:\USERS\360\DOWNLOADS\OVR_SDK_WIN_1.13.0\OCULUSSDK\LIBOVRKERNEL\SRC\KERNEL\OVR_ATOMIC.CPP
^C:\USERS\360\DOWNLOADS\OVR_SDK_WIN_1.13.0\OCULUSSDK\LIBOVRKERNEL\SRC\KERNEL\OVR_CALLBACKS.CPP
/c /IC:\USERS\360\DOWNLOADS\OVR_SDK_WIN_1.13.0\OCULUSSDK\LIBOVRKERNEL/SRC/ /IC:\USERS\360\DOWNLOADS\OVR_SDK_WIN_1.13.0\OCULUSSDK\LOGGING/INCLUDE/ /Z7 /nologo /W4 /WX /Ox /Ob2 /Oi /Oy- /D _WIN64 /D NDEBUG /D _LIB /D _UNICODE /D UNICODE /GF- /Gm- /EHs /MD /GS /Gy /fp:precise /Zc:wchar_t /Zc:forScope /Zc:inline /GR- /Fo"C:\USERS\360\DOWNLOADS\OVR_SDK_WIN_1.13.0\OCULUSSDK\LIBOVRKERNEL\PROJECTS\WINDOWS\VS2015\../../../OBJ/LIBOVRKERNEL/WINDOWS/X64/RELEASE (DLL CRT)/VS2015/" /Fd"C:\USERS\360\DOWNLOADS\OVR_SDK_WIN_1.13.0\OCULUSSDK\LIBOVRKERNEL\PROJECTS\WINDOWS\VS2015\../../../OBJ/LIBOVRKERNEL/WINDOWS/X64/RELEASE (DLL CRT)/VS2015/LIBOVRKERNEL.PDB" /Gd /TP /Zl /d2Zi+ /we4263 /we4264 /we4265 /we4266 /we4062  C:\USERS\360\DOWNLOADS\OVR_SDK_WIN_1.13.0\OCULUSSDK\LIBOVRKERNEL\SRC\KERNEL\OVR_CALLBACKS.CPP
^C:\USERS\360\DOWNLOADS\OVR_SDK_WIN_1.13.0\OCULUSSDK\LIBOVRKERNEL\SRC\KERNEL\OVR_CRC32.CPP
/c /IC:\USERS\360\DOWNLOADS\OVR_SDK_WIN_1.13.0\OCULUSSDK\LIBOVRKERNEL/SRC/ /IC:\USERS\360\DOWNLOADS\OVR_SDK_WIN_1.13.0\OCULUSSDK\LOGGING/INCLUDE/ /Z7 /nologo /W4 /WX /Ox /Ob2 /Oi /Oy- /D _WIN64 /D NDEBUG /D _LIB /D _UNICODE /D UNICODE /GF- /Gm- /EHs /MD /GS /Gy /fp:precise /Zc:wchar_t /Zc:forScope /Zc:inline /GR- /Fo"C:\USERS\360\DOWNLOADS\OVR_SDK_WIN_1.13.0\OCULUSSDK\LIBOVRKERNEL\PROJECTS\WINDOWS\VS2015\../../../OBJ/LIBOVRKERNEL/WINDOWS/X64/RELEASE (DLL CRT)/VS2015/" /Fd"C:\USERS\360\DOWNLOADS\OVR_SDK_WIN_1.13.0\OCULUSSDK\LIBOVRKERNEL\PROJECTS\WINDOWS\VS2015\../../../OBJ/LIBOVRKERNEL/WINDOWS/X64/RELEASE (DLL CRT)/VS2015/LIBOVRKERNEL.PDB" /Gd /TP /Zl /d2Zi+ /we4263 /we4264 /we4265 /we4266 /we4062  C:\USERS\360\DOWNLOADS\OVR_SDK_WIN_1.13.0\OCULUSSDK\LIBOVRKERNEL\SRC\KERNEL\OVR_CRC32.CPP
^C:\USERS\360\DOWNLOADS\OVR_SDK_WIN_1.13.0\OCULUSSDK\LIBOVRKERNEL\SRC\KERNEL\OVR_DEBUGHELP.CPP
/c /IC:\USERS\360\DOWNLOADS\OVR_SDK_WIN_1.13.0\OCULUSSDK\LIBOVRKERNEL/SRC/ /IC:\USERS\360\DOWNLOADS\OVR_SDK_WIN_1.13.0\OCULUSSDK\LOGGING/INCLUDE/ /Z7 /nologo /W4 /WX /Ox /Ob2 /Oi /Oy- /D _WIN64 /D NDEBUG /D _LIB /D _UNICODE /D UNICODE /GF- /Gm- /EHs /MD /GS /Gy /fp:precise /Zc:wchar_t /Zc:forScope /Zc:inline /GR- /Fo"C:\USERS\360\DOWNLOADS\OVR_SDK_WIN_1.13.0\OCULUSSDK\LIBOVRKERNEL\PROJECTS\WINDOWS\VS2015\../../../OBJ/LIBOVRKERNEL/WINDOWS/X64/RELEASE (DLL CRT)/VS2015/" /Fd"C:\USERS\360\DOWNLOADS\OVR_SDK_WIN_1.13.0\OCULUSSDK\LIBOVRKERNEL\PROJECTS\WINDOWS\VS2015\../../../OBJ/LIBOVRKERNEL/WINDOWS/X64/RELEASE (DLL CRT)/VS2015/LIBOVRKERNEL.PDB" /Gd /TP /Zl /d2Zi+ /we4263 /we4264 /we4265 /we4266 /we4062  C:\USERS\360\DOWNLOADS\OVR_SDK_WIN_1.13.0\OCULUSSDK\LIBOVRKERNEL\SRC\KERNEL\OVR_DEBUGHELP.CPP
^C:\USERS\360\DOWNLOADS\OVR_SDK_WIN_1.13.0\OCULUSSDK\LIBOVRKERNEL\SRC\KERNEL\OVR_ERROR.CPP
/c /IC:\USERS\360\DOWNLOADS\OVR_SDK_WIN_1.13.0\OCULUSSDK\LIBOVRKERNEL/SRC/ /IC:\USERS\360\DOWNLOADS\OVR_SDK_WIN_1.13.0\OCULUSSDK\LOGGING/INCLUDE/ /Z7 /nologo /W4 /WX /Ox /Ob2 /Oi /Oy- /D _WIN64 /D NDEBUG /D _LIB /D _UNICODE /D UNICODE /GF- /Gm- /EHs /MD /GS /Gy /fp:precise /Zc:wchar_t /Zc:forScope /Zc:inline /GR- /Fo"C:\USERS\360\DOWNLOADS\OVR_SDK_WIN_1.13.0\OCULUSSDK\LIBOVRKERNEL\PROJECTS\WINDOWS\VS2015\../../../OBJ/LIBOVRKERNEL/WINDOWS/X64/RELEASE (DLL CRT)/VS2015/" /Fd"C:\USERS\360\DOWNLOADS\OVR_SDK_WIN_1.13.0\OCULUSSDK\LIBOVRKERNEL\PROJECTS\WINDOWS\VS2015\../../../OBJ/LIBOVRKERNEL/WINDOWS/X64/RELEASE (DLL CRT)/VS2015/LIBOVRKERNEL.PDB" /Gd /TP /Zl /d2Zi+ /we4263 /we4264 /we4265 /we4266 /we4062  C:\USERS\360\DOWNLOADS\OVR_SDK_WIN_1.13.0\OCULUSSDK\LIBOVRKERNEL\SRC\KERNEL\OVR_ERROR.CPP
^C:\USERS\360\DOWNLOADS\OVR_SDK_WIN_1.13.0\OCULUSSDK\LIBOVRKERNEL\SRC\KERNEL\OVR_FILE.CPP
/c /IC:\USERS\360\DOWNLOADS\OVR_SDK_WIN_1.13.0\OCULUSSDK\LIBOVRKERNEL/SRC/ /IC:\USERS\360\DOWNLOADS\OVR_SDK_WIN_1.13.0\OCULUSSDK\LOGGING/INCLUDE/ /Z7 /nologo /W4 /WX /Ox /Ob2 /Oi /Oy- /D _WIN64 /D NDEBUG /D _LIB /D _UNICODE /D UNICODE /GF- /Gm- /EHs /MD /GS /Gy /fp:precise /Zc:wchar_t /Zc:forScope /Zc:inline /GR- /Fo"C:\USERS\360\DOWNLOADS\OVR_SDK_WIN_1.13.0\OCULUSSDK\LIBOVRKERNEL\PROJECTS\WINDOWS\VS2015\../../../OBJ/LIBOVRKERNEL/WINDOWS/X64/RELEASE (DLL CRT)/VS2015/" /Fd"C:\USERS\360\DOWNLOADS\OVR_SDK_WIN_1.13.0\OCULUSSDK\LIBOVRKERNEL\PROJECTS\WINDOWS\VS2015\../../../OBJ/LIBOVRKERNEL/WINDOWS/X64/RELEASE (DLL CRT)/VS2015/LIBOVRKERNEL.PDB" /Gd /TP /Zl /d2Zi+ /we4263 /we4264 /we4265 /we4266 /we4062  C:\USERS\360\DOWNLOADS\OVR_SDK_WIN_1.13.0\OCULUSSDK\LIBOVRKERNEL\SRC\KERNEL\OVR_FILE.CPP
^C:\USERS\360\DOWNLOADS\OVR_SDK_WIN_1.13.0\OCULUSSDK\LIBOVRKERNEL\SRC\KERNEL\OVR_FILEFILE.CPP
/c /IC:\USERS\360\DOWNLOADS\OVR_SDK_WIN_1.13.0\OCULUSSDK\LIBOVRKERNEL/SRC/ /IC:\USERS\360\DOWNLOADS\OVR_SDK_WIN_1.13.0\OCULUSSDK\LOGGING/INCLUDE/ /Z7 /nologo /W4 /WX /Ox /Ob2 /Oi /Oy- /D _WIN64 /D NDEBUG /D _LIB /D _UNICODE /D UNICODE /GF- /Gm- /EHs /MD /GS /Gy /fp:precise /Zc:wchar_t /Zc:forScope /Zc:inline /GR- /Fo"C:\USERS\360\DOWNLOADS\OVR_SDK_WIN_1.13.0\OCULUSSDK\LIBOVRKERNEL\PROJECTS\WINDOWS\VS2015\../../../OBJ/LIBOVRKERNEL/WINDOWS/X64/RELEASE (DLL CRT)/VS2015/" /Fd"C:\USERS\360\DOWNLOADS\OVR_SDK_WIN_1.13.0\OCULUSSDK\LIBOVRKERNEL\PROJECTS\WINDOWS\VS2015\../../../OBJ/LIBOVRKERNEL/WINDOWS/X64/RELEASE (DLL CRT)/VS2015/LIBOVRKERNEL.PDB" /Gd /TP /Zl /d2Zi+ /we4263 /we4264 /we4265 /we4266 /we4062  C:\USERS\360\DOWNLOADS\OVR_SDK_WIN_1.13.0\OCULUSSDK\LIBOVRKERNEL\SRC\KERNEL\OVR_FILEFILE.CPP
^C:\USERS\360\DOWNLOADS\OVR_SDK_WIN_1.13.0\OCULUSSDK\LIBOVRKERNEL\SRC\KERNEL\OVR_JSON.CPP
/c /IC:\USERS\360\DOWNLOADS\OVR_SDK_WIN_1.13.0\OCULUSSDK\LIBOVRKERNEL/SRC/ /IC:\USERS\360\DOWNLOADS\OVR_SDK_WIN_1.13.0\OCULUSSDK\LOGGING/INCLUDE/ /Z7 /nologo /W4 /WX /Ox /Ob2 /Oi /Oy- /D _WIN64 /D NDEBUG /D _LIB /D _UNICODE /D UNICODE /GF- /Gm- /EHs /MD /GS /Gy /fp:precise /Zc:wchar_t /Zc:forScope /Zc:inline /GR- /Fo"C:\USERS\360\DOWNLOADS\OVR_SDK_WIN_1.13.0\OCULUSSDK\LIBOVRKERNEL\PROJECTS\WINDOWS\VS2015\../../../OBJ/LIBOVRKERNEL/WINDOWS/X64/RELEASE (DLL CRT)/VS2015/" /Fd"C:\USERS\360\DOWNLOADS\OVR_SDK_WIN_1.13.0\OCULUSSDK\LIBOVRKERNEL\PROJECTS\WINDOWS\VS2015\../../../OBJ/LIBOVRKERNEL/WINDOWS/X64/RELEASE (DLL CRT)/VS2015/LIBOVRKERNEL.PDB" /Gd /TP /Zl /d2Zi+ /we4263 /we4264 /we4265 /we4266 /we4062  C:\USERS\360\DOWNLOADS\OVR_SDK_WIN_1.13.0\OCULUSSDK\LIBOVRKERNEL\SRC\KERNEL\OVR_JSON.CPP
^C:\USERS\360\DOWNLOADS\OVR_SDK_WIN_1.13.0\OCULUSSDK\LIBOVRKERNEL\SRC\KERNEL\OVR_LOG.CPP
/c /IC:\USERS\360\DOWNLOADS\OVR_SDK_WIN_1.13.0\OCULUSSDK\LIBOVRKERNEL/SRC/ /IC:\USERS\360\DOWNLOADS\OVR_SDK_WIN_1.13.0\OCULUSSDK\LOGGING/INCLUDE/ /Z7 /nologo /W4 /WX /Ox /Ob2 /Oi /Oy- /D _WIN64 /D NDEBUG /D _LIB /D _UNICODE /D UNICODE /GF- /Gm- /EHs /MD /GS /Gy /fp:precise /Zc:wchar_t /Zc:forScope /Zc:inline /GR- /Fo"C:\USERS\360\DOWNLOADS\OVR_SDK_WIN_1.13.0\OCULUSSDK\LIBOVRKERNEL\PROJECTS\WINDOWS\VS2015\../../../OBJ/LIBOVRKERNEL/WINDOWS/X64/RELEASE (DLL CRT)/VS2015/" /Fd"C:\USERS\360\DOWNLOADS\OVR_SDK_WIN_1.13.0\OCULUSSDK\LIBOVRKERNEL\PROJECTS\WINDOWS\VS2015\../../../OBJ/LIBOVRKERNEL/WINDOWS/X64/RELEASE (DLL CRT)/VS2015/LIBOVRKERNEL.PDB" /Gd /TP /Zl /d2Zi+ /we4263 /we4264 /we4265 /we4266 /we4062  C:\USERS\360\DOWNLOADS\OVR_SDK_WIN_1.13.0\OCULUSSDK\LIBOVRKERNEL\SRC\KERNEL\OVR_LOG.CPP
^C:\USERS\360\DOWNLOADS\OVR_SDK_WIN_1.13.0\OCULUSSDK\LIBOVRKERNEL\SRC\KERNEL\OVR_RAND.CPP
/c /IC:\USERS\360\DOWNLOADS\OVR_SDK_WIN_1.13.0\OCULUSSDK\LIBOVRKERNEL/SRC/ /IC:\USERS\360\DOWNLOADS\OVR_SDK_WIN_1.13.0\OCULUSSDK\LOGGING/INCLUDE/ /Z7 /nologo /W4 /WX /Ox /Ob2 /Oi /Oy- /D _WIN64 /D NDEBUG /D _LIB /D _UNICODE /D UNICODE /GF- /Gm- /EHs /MD /GS /Gy /fp:precise /Zc:wchar_t /Zc:forScope /Zc:inline /GR- /Fo"C:\USERS\360\DOWNLOADS\OVR_SDK_WIN_1.13.0\OCULUSSDK\LIBOVRKERNEL\PROJECTS\WINDOWS\VS2015\../../../OBJ/LIBOVRKERNEL/WINDOWS/X64/RELEASE (DLL CRT)/VS2015/" /Fd"C:\USERS\360\DOWNLOADS\OVR_SDK_WIN_1.13.0\OCULUSSDK\LIBOVRKERNEL\PROJECTS\WINDOWS\VS2015\../../../OBJ/LIBOVRKERNEL/WINDOWS/X64/RELEASE (DLL CRT)/VS2015/LIBOVRKERNEL.PDB" /Gd /TP /Zl /d2Zi+ /we4263 /we4264 /we4265 /we4266 /we4062  C:\USERS\360\DOWNLOADS\OVR_SDK_WIN_1.13.0\OCULUSSDK\LIBOVRKERNEL\SRC\KERNEL\OVR_RAND.CPP
^C:\USERS\360\DOWNLOADS\OVR_SDK_WIN_1.13.0\OCULUSSDK\LIBOVRKERNEL\SRC\KERNEL\OVR_REFCOUNT.CPP
/c /IC:\USERS\360\DOWNLOADS\OVR_SDK_WIN_1.13.0\OCULUSSDK\LIBOVRKERNEL/SRC/ /IC:\USERS\360\DOWNLOADS\OVR_SDK_WIN_1.13.0\OCULUSSDK\LOGGING/INCLUDE/ /Z7 /nologo /W4 /WX /Ox /Ob2 /Oi /Oy- /D _WIN64 /D NDEBUG /D _LIB /D _UNICODE /D UNICODE /GF- /Gm- /EHs /MD /GS /Gy /fp:precise /Zc:wchar_t /Zc:forScope /Zc:inline /GR- /Fo"C:\USERS\360\DOWNLOADS\OVR_SDK_WIN_1.13.0\OCULUSSDK\LIBOVRKERNEL\PROJECTS\WINDOWS\VS2015\../../../OBJ/LIBOVRKERNEL/WINDOWS/X64/RELEASE (DLL CRT)/VS2015/" /Fd"C:\USERS\360\DOWNLOADS\OVR_SDK_WIN_1.13.0\OCULUSSDK\LIBOVRKERNEL\PROJECTS\WINDOWS\VS2015\../../../OBJ/LIBOVRKERNEL/WINDOWS/X64/RELEASE (DLL CRT)/VS2015/LIBOVRKERNEL.PDB" /Gd /TP /Zl /d2Zi+ /we4263 /we4264 /we4265 /we4266 /we4062  C:\USERS\360\DOWNLOADS\OVR_SDK_WIN_1.13.0\OCULUSSDK\LIBOVRKERNEL\SRC\KERNEL\OVR_REFCOUNT.CPP
^C:\USERS\360\DOWNLOADS\OVR_SDK_WIN_1.13.0\OCULUSSDK\LIBOVRKERNEL\SRC\KERNEL\OVR_SHAREDMEMORY.CPP
/c /IC:\USERS\360\DOWNLOADS\OVR_SDK_WIN_1.13.0\OCULUSSDK\LIBOVRKERNEL/SRC/ /IC:\USERS\360\DOWNLOADS\OVR_SDK_WIN_1.13.0\OCULUSSDK\LOGGING/INCLUDE/ /Z7 /nologo /W4 /WX /Ox /Ob2 /Oi /Oy- /D _WIN64 /D NDEBUG /D _LIB /D _UNICODE /D UNICODE /GF- /Gm- /EHs /MD /GS /Gy /fp:precise /Zc:wchar_t /Zc:forScope /Zc:inline /GR- /Fo"C:\USERS\360\DOWNLOADS\OVR_SDK_WIN_1.13.0\OCULUSSDK\LIBOVRKERNEL\PROJECTS\WINDOWS\VS2015\../../../OBJ/LIBOVRKERNEL/WINDOWS/X64/RELEASE (DLL CRT)/VS2015/" /Fd"C:\USERS\360\DOWNLOADS\OVR_SDK_WIN_1.13.0\OCULUSSDK\LIBOVRKERNEL\PROJECTS\WINDOWS\VS2015\../../../OBJ/LIBOVRKERNEL/WINDOWS/X64/RELEASE (DLL CRT)/VS2015/LIBOVRKERNEL.PDB" /Gd /TP /Zl /d2Zi+ /we4263 /we4264 /we4265 /we4266 /we4062  C:\USERS\360\DOWNLOADS\OVR_SDK_WIN_1.13.0\OCULUSSDK\LIBOVRKERNEL\SRC\KERNEL\OVR_SHAREDMEMORY.CPP
^C:\USERS\360\DOWNLOADS\OVR_SDK_WIN_1.13.0\OCULUSSDK\LIBOVRKERNEL\SRC\KERNEL\OVR_STD.CPP
/c /IC:\USERS\360\DOWNLOADS\OVR_SDK_WIN_1.13.0\OCULUSSDK\LIBOVRKERNEL/SRC/ /IC:\USERS\360\DOWNLOADS\OVR_SDK_WIN_1.13.0\OCULUSSDK\LOGGING/INCLUDE/ /Z7 /nologo /W4 /WX /Ox /Ob2 /Oi /Oy- /D _WIN64 /D NDEBUG /D _LIB /D _UNICODE /D UNICODE /GF- /Gm- /EHs /MD /GS /Gy /fp:precise /Zc:wchar_t /Zc:forScope /Zc:inline /GR- /Fo"C:\USERS\360\DOWNLOADS\OVR_SDK_WIN_1.13.0\OCULUSSDK\LIBOVRKERNEL\PROJECTS\WINDOWS\VS2015\../../../OBJ/LIBOVRKERNEL/WINDOWS/X64/RELEASE (DLL CRT)/VS2015/" /Fd"C:\USERS\360\DOWNLOADS\OVR_SDK_WIN_1.13.0\OCULUSSDK\LIBOVRKERNEL\PROJECTS\WINDOWS\VS2015\../../../OBJ/LIBOVRKERNEL/WINDOWS/X64/RELEASE (DLL CRT)/VS2015/LIBOVRKERNEL.PDB" /Gd /TP /Zl /d2Zi+ /we4263 /we4264 /we4265 /we4266 /we4062  C:\USERS\360\DOWNLOADS\OVR_SDK_WIN_1.13.0\OCULUSSDK\LIBOVRKERNEL\SRC\KERNEL\OVR_STD.CPP
^C:\USERS\360\DOWNLOADS\OVR_SDK_WIN_1.13.0\OCULUSSDK\LIBOVRKERNEL\SRC\KERNEL\OVR_STRING.CPP
/c /IC:\USERS\360\DOWNLOADS\OVR_SDK_WIN_1.13.0\OCULUSSDK\LIBOVRKERNEL/SRC/ /IC:\USERS\360\DOWNLOADS\OVR_SDK_WIN_1.13.0\OCULUSSDK\LOGGING/INCLUDE/ /Z7 /nologo /W4 /WX /Ox /Ob2 /Oi /Oy- /D _WIN64 /D NDEBUG /D _LIB /D _UNICODE /D UNICODE /GF- /Gm- /EHs /MD /GS /Gy /fp:precise /Zc:wchar_t /Zc:forScope /Zc:inline /GR- /Fo"C:\USERS\360\DOWNLOADS\OVR_SDK_WIN_1.13.0\OCULUSSDK\LIBOVRKERNEL\PROJECTS\WINDOWS\VS2015\../../../OBJ/LIBOVRKERNEL/WINDOWS/X64/RELEASE (DLL CRT)/VS2015/" /Fd"C:\USERS\360\DOWNLOADS\OVR_SDK_WIN_1.13.0\OCULUSSDK\LIBOVRKERNEL\PROJECTS\WINDOWS\VS2015\../../../OBJ/LIBOVRKERNEL/WINDOWS/X64/RELEASE (DLL CRT)/VS2015/LIBOVRKERNEL.PDB" /Gd /TP /Zl /d2Zi+ /we4263 /we4264 /we4265 /we4266 /we4062  C:\USERS\360\DOWNLOADS\OVR_SDK_WIN_1.13.0\OCULUSSDK\LIBOVRKERNEL\SRC\KERNEL\OVR_STRING.CPP
^C:\USERS\360\DOWNLOADS\OVR_SDK_WIN_1.13.0\OCULUSSDK\LIBOVRKERNEL\SRC\KERNEL\OVR_STRING_FORMATUTIL.CPP
/c /IC:\USERS\360\DOWNLOADS\OVR_SDK_WIN_1.13.0\OCULUSSDK\LIBOVRKERNEL/SRC/ /IC:\USERS\360\DOWNLOADS\OVR_SDK_WIN_1.13.0\OCULUSSDK\LOGGING/INCLUDE/ /Z7 /nologo /W4 /WX /Ox /Ob2 /Oi /Oy- /D _WIN64 /D NDEBUG /D _LIB /D _UNICODE /D UNICODE /GF- /Gm- /EHs /MD /GS /Gy /fp:precise /Zc:wchar_t /Zc:forScope /Zc:inline /GR- /Fo"C:\USERS\360\DOWNLOADS\OVR_SDK_WIN_1.13.0\OCULUSSDK\LIBOVRKERNEL\PROJECTS\WINDOWS\VS2015\../../../OBJ/LIBOVRKERNEL/WINDOWS/X64/RELEASE (DLL CRT)/VS2015/" /Fd"C:\USERS\360\DOWNLOADS\OVR_SDK_WIN_1.13.0\OCULUSSDK\LIBOVRKERNEL\PROJECTS\WINDOWS\VS2015\../../../OBJ/LIBOVRKERNEL/WINDOWS/X64/RELEASE (DLL CRT)/VS2015/LIBOVRKERNEL.PDB" /Gd /TP /Zl /d2Zi+ /we4263 /we4264 /we4265 /we4266 /we4062  C:\USERS\360\DOWNLOADS\OVR_SDK_WIN_1.13.0\OCULUSSDK\LIBOVRKERNEL\SRC\KERNEL\OVR_STRING_FORMATUTIL.CPP
^C:\USERS\360\DOWNLOADS\OVR_SDK_WIN_1.13.0\OCULUSSDK\LIBOVRKERNEL\SRC\KERNEL\OVR_STRING_PATHUTIL.CPP
/c /IC:\USERS\360\DOWNLOADS\OVR_SDK_WIN_1.13.0\OCULUSSDK\LIBOVRKERNEL/SRC/ /IC:\USERS\360\DOWNLOADS\OVR_SDK_WIN_1.13.0\OCULUSSDK\LOGGING/INCLUDE/ /Z7 /nologo /W4 /WX /Ox /Ob2 /Oi /Oy- /D _WIN64 /D NDEBUG /D _LIB /D _UNICODE /D UNICODE /GF- /Gm- /EHs /MD /GS /Gy /fp:precise /Zc:wchar_t /Zc:forScope /Zc:inline /GR- /Fo"C:\USERS\360\DOWNLOADS\OVR_SDK_WIN_1.13.0\OCULUSSDK\LIBOVRKERNEL\PROJECTS\WINDOWS\VS2015\../../../OBJ/LIBOVRKERNEL/WINDOWS/X64/RELEASE (DLL CRT)/VS2015/" /Fd"C:\USERS\360\DOWNLOADS\OVR_SDK_WIN_1.13.0\OCULUSSDK\LIBOVRKERNEL\PROJECTS\WINDOWS\VS2015\../../../OBJ/LIBOVRKERNEL/WINDOWS/X64/RELEASE (DLL CRT)/VS2015/LIBOVRKERNEL.PDB" /Gd /TP /Zl /d2Zi+ /we4263 /we4264 /we4265 /we4266 /we4062  C:\USERS\360\DOWNLOADS\OVR_SDK_WIN_1.13.0\OCULUSSDK\LIBOVRKERNEL\SRC\KERNEL\OVR_STRING_PATHUTIL.CPP
^C:\USERS\360\DOWNLOADS\OVR_SDK_WIN_1.13.0\OCULUSSDK\LIBOVRKERNEL\SRC\KERNEL\OVR_SYSFILE.CPP
/c /IC:\USERS\360\DOWNLOADS\OVR_SDK_WIN_1.13.0\OCULUSSDK\LIBOVRKERNEL/SRC/ /IC:\USERS\360\DOWNLOADS\OVR_SDK_WIN_1.13.0\OCULUSSDK\LOGGING/INCLUDE/ /Z7 /nologo /W4 /WX /Ox /Ob2 /Oi /Oy- /D _WIN64 /D NDEBUG /D _LIB /D _UNICODE /D UNICODE /GF- /Gm- /EHs /MD /GS /Gy /fp:precise /Zc:wchar_t /Zc:forScope /Zc:inline /GR- /Fo"C:\USERS\360\DOWNLOADS\OVR_SDK_WIN_1.13.0\OCULUSSDK\LIBOVRKERNEL\PROJECTS\WINDOWS\VS2015\../../../OBJ/LIBOVRKERNEL/WINDOWS/X64/RELEASE (DLL CRT)/VS2015/" /Fd"C:\USERS\360\DOWNLOADS\OVR_SDK_WIN_1.13.0\OCULUSSDK\LIBOVRKERNEL\PROJECTS\WINDOWS\VS2015\../../../OBJ/LIBOVRKERNEL/WINDOWS/X64/RELEASE (DLL CRT)/VS2015/LIBOVRKERNEL.PDB" /Gd /TP /Zl /d2Zi+ /we4263 /we4264 /we4265 /we4266 /we4062  C:\USERS\360\DOWNLOADS\OVR_SDK_WIN_1.13.0\OCULUSSDK\LIBOVRKERNEL\SRC\KERNEL\OVR_SYSFILE.CPP
^C:\USERS\360\DOWNLOADS\OVR_SDK_WIN_1.13.0\OCULUSSDK\LIBOVRKERNEL\SRC\KERNEL\OVR_SYSTEM.CPP
/c /IC:\USERS\360\DOWNLOADS\OVR_SDK_WIN_1.13.0\OCULUSSDK\LIBOVRKERNEL/SRC/ /IC:\USERS\360\DOWNLOADS\OVR_SDK_WIN_1.13.0\OCULUSSDK\LOGGING/INCLUDE/ /Z7 /nologo /W4 /WX /Ox /Ob2 /Oi /Oy- /D _WIN64 /D NDEBUG /D _LIB /D _UNICODE /D UNICODE /GF- /Gm- /EHs /MD /GS /Gy /fp:precise /Zc:wchar_t /Zc:forScope /Zc:inline /GR- /Fo"C:\USERS\360\DOWNLOADS\OVR_SDK_WIN_1.13.0\OCULUSSDK\LIBOVRKERNEL\PROJECTS\WINDOWS\VS2015\../../../OBJ/LIBOVRKERNEL/WINDOWS/X64/RELEASE (DLL CRT)/VS2015/" /Fd"C:\USERS\360\DOWNLOADS\OVR_SDK_WIN_1.13.0\OCULUSSDK\LIBOVRKERNEL\PROJECTS\WINDOWS\VS2015\../../../OBJ/LIBOVRKERNEL/WINDOWS/X64/RELEASE (DLL CRT)/VS2015/LIBOVRKERNEL.PDB" /Gd /TP /Zl /d2Zi+ /we4263 /we4264 /we4265 /we4266 /we4062  C:\USERS\360\DOWNLOADS\OVR_SDK_WIN_1.13.0\OCULUSSDK\LIBOVRKERNEL\SRC\KERNEL\OVR_SYSTEM.CPP
^C:\USERS\360\DOWNLOADS\OVR_SDK_WIN_1.13.0\OCULUSSDK\LIBOVRKERNEL\SRC\KERNEL\OVR_THREADSPTHREAD.CPP
/c /IC:\USERS\360\DOWNLOADS\OVR_SDK_WIN_1.13.0\OCULUSSDK\LIBOVRKERNEL/SRC/ /IC:\USERS\360\DOWNLOADS\OVR_SDK_WIN_1.13.0\OCULUSSDK\LOGGING/INCLUDE/ /Z7 /nologo /W4 /WX /Ox /Ob2 /Oi /Oy- /D _WIN64 /D NDEBUG /D _LIB /D _UNICODE /D UNICODE /GF- /Gm- /EHs /MD /GS /Gy /fp:precise /Zc:wchar_t /Zc:forScope /Zc:inline /GR- /Fo"C:\USERS\360\DOWNLOADS\OVR_SDK_WIN_1.13.0\OCULUSSDK\LIBOVRKERNEL\PROJECTS\WINDOWS\VS2015\../../../OBJ/LIBOVRKERNEL/WINDOWS/X64/RELEASE (DLL CRT)/VS2015/" /Fd"C:\USERS\360\DOWNLOADS\OVR_SDK_WIN_1.13.0\OCULUSSDK\LIBOVRKERNEL\PROJECTS\WINDOWS\VS2015\../../../OBJ/LIBOVRKERNEL/WINDOWS/X64/RELEASE (DLL CRT)/VS2015/LIBOVRKERNEL.PDB" /Gd /TP /Zl /d2Zi+ /we4263 /we4264 /we4265 /we4266 /we4062  C:\USERS\360\DOWNLOADS\OVR_SDK_WIN_1.13.0\OCULUSSDK\LIBOVRKERNEL\SRC\KERNEL\OVR_THREADSPTHREAD.CPP
^C:\USERS\360\DOWNLOADS\OVR_SDK_WIN_1.13.0\OCULUSSDK\LIBOVRKERNEL\SRC\KERNEL\OVR_THREADSWINAPI.CPP
/c /IC:\USERS\360\DOWNLOADS\OVR_SDK_WIN_1.13.0\OCULUSSDK\LIBOVRKERNEL/SRC/ /IC:\USERS\360\DOWNLOADS\OVR_SDK_WIN_1.13.0\OCULUSSDK\LOGGING/INCLUDE/ /Z7 /nologo /W4 /WX /Ox /Ob2 /Oi /Oy- /D _WIN64 /D NDEBUG /D _LIB /D _UNICODE /D UNICODE /GF- /Gm- /EHs /MD /GS /Gy /fp:precise /Zc:wchar_t /Zc:forScope /Zc:inline /GR- /Fo"C:\USERS\360\DOWNLOADS\OVR_SDK_WIN_1.13.0\OCULUSSDK\LIBOVRKERNEL\PROJECTS\WINDOWS\VS2015\../../../OBJ/LIBOVRKERNEL/WINDOWS/X64/RELEASE (DLL CRT)/VS2015/" /Fd"C:\USERS\360\DOWNLOADS\OVR_SDK_WIN_1.13.0\OCULUSSDK\LIBOVRKERNEL\PROJECTS\WINDOWS\VS2015\../../../OBJ/LIBOVRKERNEL/WINDOWS/X64/RELEASE (DLL CRT)/VS2015/LIBOVRKERNEL.PDB" /Gd /TP /Zl /d2Zi+ /we4263 /we4264 /we4265 /we4266 /we4062  C:\USERS\360\DOWNLOADS\OVR_SDK_WIN_1.13.0\OCULUSSDK\LIBOVRKERNEL\SRC\KERNEL\OVR_THREADSWINAPI.CPP
^C:\USERS\360\DOWNLOADS\OVR_SDK_WIN_1.13.0\OCULUSSDK\LIBOVRKERNEL\SRC\KERNEL\OVR_TIMER.CPP
/c /IC:\USERS\360\DOWNLOADS\OVR_SDK_WIN_1.13.0\OCULUSSDK\LIBOVRKERNEL/SRC/ /IC:\USERS\360\DOWNLOADS\OVR_SDK_WIN_1.13.0\OCULUSSDK\LOGGING/INCLUDE/ /Z7 /nologo /W4 /WX /Ox /Ob2 /Oi /Oy- /D _WIN64 /D NDEBUG /D _LIB /D _UNICODE /D UNICODE /GF- /Gm- /EHs /MD /GS /Gy /fp:precise /Zc:wchar_t /Zc:forScope /Zc:inline /GR- /Fo"C:\USERS\360\DOWNLOADS\OVR_SDK_WIN_1.13.0\OCULUSSDK\LIBOVRKERNEL\PROJECTS\WINDOWS\VS2015\../../../OBJ/LIBOVRKERNEL/WINDOWS/X64/RELEASE (DLL CRT)/VS2015/" /Fd"C:\USERS\360\DOWNLOADS\OVR_SDK_WIN_1.13.0\OCULUSSDK\LIBOVRKERNEL\PROJECTS\WINDOWS\VS2015\../../../OBJ/LIBOVRKERNEL/WINDOWS/X64/RELEASE (DLL CRT)/VS2015/LIBOVRKERNEL.PDB" /Gd /TP /Zl /d2Zi+ /we4263 /we4264 /we4265 /we4266 /we4062  C:\USERS\360\DOWNLOADS\OVR_SDK_WIN_1.13.0\OCULUSSDK\LIBOVRKERNEL\SRC\KERNEL\OVR_TIMER.CPP
^C:\USERS\360\DOWNLOADS\OVR_SDK_WIN_1.13.0\OCULUSSDK\LIBOVRKERNEL\SRC\KERNEL\OVR_UTF8UTIL.CPP
/c /IC:\USERS\360\DOWNLOADS\OVR_SDK_WIN_1.13.0\OCULUSSDK\LIBOVRKERNEL/SRC/ /IC:\USERS\360\DOWNLOADS\OVR_SDK_WIN_1.13.0\OCULUSSDK\LOGGING/INCLUDE/ /Z7 /nologo /W4 /WX /Ox /Ob2 /Oi /Oy- /D _WIN64 /D NDEBUG /D _LIB /D _UNICODE /D UNICODE /GF- /Gm- /EHs /MD /GS /Gy /fp:precise /Zc:wchar_t /Zc:forScope /Zc:inline /GR- /Fo"C:\USERS\360\DOWNLOADS\OVR_SDK_WIN_1.13.0\OCULUSSDK\LIBOVRKERNEL\PROJECTS\WINDOWS\VS2015\../../../OBJ/LIBOVRKERNEL/WINDOWS/X64/RELEASE (DLL CRT)/VS2015/" /Fd"C:\USERS\360\DOWNLOADS\OVR_SDK_WIN_1.13.0\OCULUSSDK\LIBOVRKERNEL\PROJECTS\WINDOWS\VS2015\../../../OBJ/LIBOVRKERNEL/WINDOWS/X64/RELEASE (DLL CRT)/VS2015/LIBOVRKERNEL.PDB" /Gd /TP /Zl /d2Zi+ /we4263 /we4264 /we4265 /we4266 /we4062  C:\USERS\360\DOWNLOADS\OVR_SDK_WIN_1.13.0\OCULUSSDK\LIBOVRKERNEL\SRC\KERNEL\OVR_UTF8UTIL.CPP
^C:\USERS\360\DOWNLOADS\OVR_SDK_WIN_1.13.0\OCULUSSDK\LIBOVRKERNEL\SRC\UTIL\UTIL_D3D11_BLITTER.CPP
/c /IC:\USERS\360\DOWNLOADS\OVR_SDK_WIN_1.13.0\OCULUSSDK\LIBOVRKERNEL/SRC/ /IC:\USERS\360\DOWNLOADS\OVR_SDK_WIN_1.13.0\OCULUSSDK\LOGGING/INCLUDE/ /Z7 /nologo /W4 /WX /Ox /Ob2 /Oi /Oy- /D _WIN64 /D NDEBUG /D _LIB /D _UNICODE /D UNICODE /GF- /Gm- /EHs /MD /GS /Gy /fp:precise /Zc:wchar_t /Zc:forScope /Zc:inline /GR- /Fo"C:\USERS\360\DOWNLOADS\OVR_SDK_WIN_1.13.0\OCULUSSDK\LIBOVRKERNEL\PROJECTS\WINDOWS\VS2015\../../../OBJ/LIBOVRKERNEL/WINDOWS/X64/RELEASE (DLL CRT)/VS2015/" /Fd"C:\USERS\360\DOWNLOADS\OVR_SDK_WIN_1.13.0\OCULUSSDK\LIBOVRKERNEL\PROJECTS\WINDOWS\VS2015\../../../OBJ/LIBOVRKERNEL/WINDOWS/X64/RELEASE (DLL CRT)/VS2015/LIBOVRKERNEL.PDB" /Gd /TP /Zl /d2Zi+ /we4263 /we4264 /we4265 /we4266 /we4062  C:\USERS\360\DOWNLOADS\OVR_SDK_WIN_1.13.0\OCULUSSDK\LIBOVRKERNEL\SRC\UTIL\UTIL_D3D11_BLITTER.CPP
^C:\USERS\360\DOWNLOADS\OVR_SDK_WIN_1.13.0\OCULUSSDK\LIBOVRKERNEL\SRC\UTIL\UTIL_DIRECT3D.CPP
/c /IC:\USERS\360\DOWNLOADS\OVR_SDK_WIN_1.13.0\OCULUSSDK\LIBOVRKERNEL/SRC/ /IC:\USERS\360\DOWNLOADS\OVR_SDK_WIN_1.13.0\OCULUSSDK\LOGGING/INCLUDE/ /Z7 /nologo /W4 /WX /Ox /Ob2 /Oi /Oy- /D _WIN64 /D NDEBUG /D _LIB /D _UNICODE /D UNICODE /GF- /Gm- /EHs /MD /GS /Gy /fp:precise /Zc:wchar_t /Zc:forScope /Zc:inline /GR- /Fo"C:\USERS\360\DOWNLOADS\OVR_SDK_WIN_1.13.0\OCULUSSDK\LIBOVRKERNEL\PROJECTS\WINDOWS\VS2015\../../../OBJ/LIBOVRKERNEL/WINDOWS/X64/RELEASE (DLL CRT)/VS2015/" /Fd"C:\USERS\360\DOWNLOADS\OVR_SDK_WIN_1.13.0\OCULUSSDK\LIBOVRKERNEL\PROJECTS\WINDOWS\VS2015\../../../OBJ/LIBOVRKERNEL/WINDOWS/X64/RELEASE (DLL CRT)/VS2015/LIBOVRKERNEL.PDB" /Gd /TP /Zl /d2Zi+ /we4263 /we4264 /we4265 /we4266 /we4062  C:\USERS\360\DOWNLOADS\OVR_SDK_WIN_1.13.0\OCULUSSDK\LIBOVRKERNEL\SRC\UTIL\UTIL_DIRECT3D.CPP
^C:\USERS\360\DOWNLOADS\OVR_SDK_WIN_1.13.0\OCULUSSDK\LIBOVRKERNEL\SRC\UTIL\UTIL_GL_BLITTER.CPP
/c /IC:\USERS\360\DOWNLOADS\OVR_SDK_WIN_1.13.0\OCULUSSDK\LIBOVRKERNEL/SRC/ /IC:\USERS\360\DOWNLOADS\OVR_SDK_WIN_1.13.0\OCULUSSDK\LOGGING/INCLUDE/ /Z7 /nologo /W4 /WX /Ox /Ob2 /Oi /Oy- /D _WIN64 /D NDEBUG /D _LIB /D _UNICODE /D UNICODE /GF- /Gm- /EHs /MD /GS /Gy /fp:precise /Zc:wchar_t /Zc:forScope /Zc:inline /GR- /Fo"C:\USERS\360\DOWNLOADS\OVR_SDK_WIN_1.13.0\OCULUSSDK\LIBOVRKERNEL\PROJECTS\WINDOWS\VS2015\../../../OBJ/LIBOVRKERNEL/WINDOWS/X64/RELEASE (DLL CRT)/VS2015/" /Fd"C:\USERS\360\DOWNLOADS\OVR_SDK_WIN_1.13.0\OCULUSSDK\LIBOVRKERNEL\PROJECTS\WINDOWS\VS2015\../../../OBJ/LIBOVRKERNEL/WINDOWS/X64/RELEASE (DLL CRT)/VS2015/LIBOVRKERNEL.PDB" /Gd /TP /Zl /d2Zi+ /we4263 /we4264 /we4265 /we4266 /we4062  C:\USERS\360\DOWNLOADS\OVR_SDK_WIN_1.13.0\OCULUSSDK\LIBOVRKERNEL\SRC\UTIL\UTIL_GL_BLITTER.CPP
^C:\USERS\360\DOWNLOADS\OVR_SDK_WIN_1.13.0\OCULUSSDK\LIBOVRKERNEL\SRC\UTIL\UTIL_IMAGEWINDOW.CPP
/c /IC:\USERS\360\DOWNLOADS\OVR_SDK_WIN_1.13.0\OCULUSSDK\LIBOVRKERNEL/SRC/ /IC:\USERS\360\DOWNLOADS\OVR_SDK_WIN_1.13.0\OCULUSSDK\LOGGING/INCLUDE/ /Z7 /nologo /W4 /WX /Ox /Ob2 /Oi /Oy- /D _WIN64 /D NDEBUG /D _LIB /D _UNICODE /D UNICODE /GF- /Gm- /EHs /MD /GS /Gy /fp:precise /Zc:wchar_t /Zc:forScope /Zc:inline /GR- /Fo"C:\USERS\360\DOWNLOADS\OVR_SDK_WIN_1.13.0\OCULUSSDK\LIBOVRKERNEL\PROJECTS\WINDOWS\VS2015\../../../OBJ/LIBOVRKERNEL/WINDOWS/X64/RELEASE (DLL CRT)/VS2015/" /Fd"C:\USERS\360\DOWNLOADS\OVR_SDK_WIN_1.13.0\OCULUSSDK\LIBOVRKERNEL\PROJECTS\WINDOWS\VS2015\../../../OBJ/LIBOVRKERNEL/WINDOWS/X64/RELEASE (DLL CRT)/VS2015/LIBOVRKERNEL.PDB" /Gd /TP /Zl /d2Zi+ /we4263 /we4264 /we4265 /we4266 /we4062  C:\USERS\360\DOWNLOADS\OVR_SDK_WIN_1.13.0\OCULUSSDK\LIBOVRKERNEL\SRC\UTIL\UTIL_IMAGEWINDOW.CPP
^C:\USERS\360\DOWNLOADS\OVR_SDK_WIN_1.13.0\OCULUSSDK\LIBOVRKERNEL\SRC\UTIL\UTIL_LONGPOLLTHREAD.CPP
/c /IC:\USERS\360\DOWNLOADS\OVR_SDK_WIN_1.13.0\OCULUSSDK\LIBOVRKERNEL/SRC/ /IC:\USERS\360\DOWNLOADS\OVR_SDK_WIN_1.13.0\OCULUSSDK\LOGGING/INCLUDE/ /Z7 /nologo /W4 /WX /Ox /Ob2 /Oi /Oy- /D _WIN64 /D NDEBUG /D _LIB /D _UNICODE /D UNICODE /GF- /Gm- /EHs /MD /GS /Gy /fp:precise /Zc:wchar_t /Zc:forScope /Zc:inline /GR- /Fo"C:\USERS\360\DOWNLOADS\OVR_SDK_WIN_1.13.0\OCULUSSDK\LIBOVRKERNEL\PROJECTS\WINDOWS\VS2015\../../../OBJ/LIBOVRKERNEL/WINDOWS/X64/RELEASE (DLL CRT)/VS2015/" /Fd"C:\USERS\360\DOWNLOADS\OVR_SDK_WIN_1.13.0\OCULUSSDK\LIBOVRKERNEL\PROJECTS\WINDOWS\VS2015\../../../OBJ/LIBOVRKERNEL/WINDOWS/X64/RELEASE (DLL CRT)/VS2015/LIBOVRKERNEL.PDB" /Gd /TP /Zl /d2Zi+ /we4263 /we4264 /we4265 /we4266 /we4062  C:\USERS\360\DOWNLOADS\OVR_SDK_WIN_1.13.0\OCULUSSDK\LIBOVRKERNEL\SRC\UTIL\UTIL_LONGPOLLTHREAD.CPP
^C:\USERS\360\DOWNLOADS\OVR_SDK_WIN_1.13.0\OCULUSSDK\LIBOVRKERNEL\SRC\UTIL\UTIL_SYSTEMGUI.CPP
/c /IC:\USERS\360\DOWNLOADS\OVR_SDK_WIN_1.13.0\OCULUSSDK\LIBOVRKERNEL/SRC/ /IC:\USERS\360\DOWNLOADS\OVR_SDK_WIN_1.13.0\OCULUSSDK\LOGGING/INCLUDE/ /Z7 /nologo /W4 /WX /Ox /Ob2 /Oi /Oy- /D _WIN64 /D NDEBUG /D _LIB /D _UNICODE /D UNICODE /GF- /Gm- /EHs /MD /GS /Gy /fp:precise /Zc:wchar_t /Zc:forScope /Zc:inline /GR- /Fo"C:\USERS\360\DOWNLOADS\OVR_SDK_WIN_1.13.0\OCULUSSDK\LIBOVRKERNEL\PROJECTS\WINDOWS\VS2015\../../../OBJ/LIBOVRKERNEL/WINDOWS/X64/RELEASE (DLL CRT)/VS2015/" /Fd"C:\USERS\360\DOWNLOADS\OVR_SDK_WIN_1.13.0\OCULUSSDK\LIBOVRKERNEL\PROJECTS\WINDOWS\VS2015\../../../OBJ/LIBOVRKERNEL/WINDOWS/X64/RELEASE (DLL CRT)/VS2015/LIBOVRKERNEL.PDB" /Gd /TP /Zl /d2Zi+ /we4263 /we4264 /we4265 /we4266 /we4062  C:\USERS\360\DOWNLOADS\OVR_SDK_WIN_1.13.0\OCULUSSDK\LIBOVRKERNEL\SRC\UTIL\UTIL_SYSTEMGUI.CPP
^C:\USERS\360\DOWNLOADS\OVR_SDK_WIN_1.13.0\OCULUSSDK\LIBOVRKERNEL\SRC\UTIL\UTIL_SYSTEMINFO.CPP
/c /IC:\USERS\360\DOWNLOADS\OVR_SDK_WIN_1.13.0\OCULUSSDK\LIBOVRKERNEL/SRC/ /IC:\USERS\360\DOWNLOADS\OVR_SDK_WIN_1.13.0\OCULUSSDK\LOGGING/INCLUDE/ /Z7 /nologo /W4 /WX /Ox /Ob2 /Oi /Oy- /D _WIN64 /D NDEBUG /D _LIB /D _UNICODE /D UNICODE /GF- /Gm- /EHs /MD /GS /Gy /fp:precise /Zc:wchar_t /Zc:forScope /Zc:inline /GR- /Fo"C:\USERS\360\DOWNLOADS\OVR_SDK_WIN_1.13.0\OCULUSSDK\LIBOVRKERNEL\PROJECTS\WINDOWS\VS2015\../../../OBJ/LIBOVRKERNEL/WINDOWS/X64/RELEASE (DLL CRT)/VS2015/" /Fd"C:\USERS\360\DOWNLOADS\OVR_SDK_WIN_1.13.0\OCULUSSDK\LIBOVRKERNEL\PROJECTS\WINDOWS\VS2015\../../../OBJ/LIBOVRKERNEL/WINDOWS/X64/RELEASE (DLL CRT)/VS2015/LIBOVRKERNEL.PDB" /Gd /TP /Zl /d2Zi+ /we4263 /we4264 /we4265 /we4266 /we4062  C:\USERS\360\DOWNLOADS\OVR_SDK_WIN_1.13.0\OCULUSSDK\LIBOVRKERNEL\SRC\UTIL\UTIL_SYSTEMINFO.CPP
^C:\USERS\360\DOWNLOADS\OVR_SDK_WIN_1.13.0\OCULUSSDK\LIBOVRKERNEL\SRC\UTIL\UTIL_WATCHDOG.CPP
/c /IC:\USERS\360\DOWNLOADS\OVR_SDK_WIN_1.13.0\OCULUSSDK\LIBOVRKERNEL/SRC/ /IC:\USERS\360\DOWNLOADS\OVR_SDK_WIN_1.13.0\OCULUSSDK\LOGGING/INCLUDE/ /Z7 /nologo /W4 /WX /Ox /Ob2 /Oi /Oy- /D _WIN64 /D NDEBUG /D _LIB /D _UNICODE /D UNICODE /GF- /Gm- /EHs /MD /GS /Gy /fp:precise /Zc:wchar_t /Zc:forScope /Zc:inline /GR- /Fo"C:\USERS\360\DOWNLOADS\OVR_SDK_WIN_1.13.0\OCULUSSDK\LIBOVRKERNEL\PROJECTS\WINDOWS\VS2015\../../../OBJ/LIBOVRKERNEL/WINDOWS/X64/RELEASE (DLL CRT)/VS2015/" /Fd"C:\USERS\360\DOWNLOADS\OVR_SDK_WIN_1.13.0\OCULUSSDK\LIBOVRKERNEL\PROJECTS\WINDOWS\VS2015\../../../OBJ/LIBOVRKERNEL/WINDOWS/X64/RELEASE (DLL CRT)/VS2015/LIBOVRKERNEL.PDB" /Gd /TP /Zl /d2Zi+ /we4263 /we4264 /we4265 /we4266 /we4062  C:\USERS\360\DOWNLOADS\OVR_SDK_WIN_1.13.0\OCULUSSDK\LIBOVRKERNEL\SRC\UTIL\UTIL_WATCHDOG.CPP
^C:\USERS\360\DOWNLOADS\OVR_SDK_WIN_1.13.0\OCULUSSDK\LIBOVRKERNEL\SRC\KERNEL\OVR_MACH_EXC_OSX.C
/c /IC:\USERS\360\DOWNLOADS\OVR_SDK_WIN_1.13.0\OCULUSSDK\LIBOVRKERNEL/SRC/ /IC:\USERS\360\DOWNLOADS\OVR_SDK_WIN_1.13.0\OCULUSSDK\LOGGING/INCLUDE/ /Z7 /nologo /W4 /WX /Ox /Ob2 /Oi /Oy- /D _WIN64 /D NDEBUG /D _LIB /D _UNICODE /D UNICODE /GF- /Gm- /EHs /MD /GS /Gy /fp:precise /Zc:wchar_t /Zc:forScope /Zc:inline /GR- /Fo"C:\USERS\360\DOWNLOADS\OVR_SDK_WIN_1.13.0\OCULUSSDK\LIBOVRKERNEL\PROJECTS\WINDOWS\VS2015\../../../OBJ/LIBOVRKERNEL/WINDOWS/X64/RELEASE (DLL CRT)/VS2015/" /Fd"C:\USERS\360\DOWNLOADS\OVR_SDK_WIN_1.13.0\OCULUSSDK\LIBOVRKERNEL\PROJECTS\WINDOWS\VS2015\../../../OBJ/LIBOVRKERNEL/WINDOWS/X64/RELEASE (DLL CRT)/VS2015/LIBOVRKERNEL.PDB" /Gd /TC /Zl /d2Zi+ /we4263 /we4264 /we4265 /we4266 /we4062  C:\USERS\360\DOWNLOADS\OVR_SDK_WIN_1.13.0\OCULUSSDK\LIBOVRKERNEL\SRC\KERNEL\OVR_MACH_EXC_OSX.C
